{
	"textures": [
		{
			"image": "assets/atlases/gamble-0.png",
			"format": "RGBA8888",
			"size": {
				"w": 2030,
				"h": 2048
			},
			"scale": 1,
			"frames": [
				{
					"filename": "win_animation_028",
					"rotated": false,
					"trimmed": true,
					"sourceSize": {
						"w": 904,
						"h": 720
					},
					"spriteSourceSize": {
						"x": 0,
						"y": 0,
						"w": 896,
						"h": 720
					},
					"frame": {
						"x": 1,
						"y": 1,
						"w": 896,
						"h": 720
					}
				},
				{
					"filename": "win_animation_027",
					"rotated": false,
					"trimmed": true,
					"sourceSize": {
						"w": 904,
						"h": 720
					},
					"spriteSourceSize": {
						"x": 0,
						"y": 0,
						"w": 891,
						"h": 720
					},
					"frame": {
						"x": 1,
						"y": 723,
						"w": 891,
						"h": 720
					}
				},
				{
					"filename": "win_animation_015",
					"rotated": false,
					"trimmed": true,
					"sourceSize": {
						"w": 904,
						"h": 720
					},
					"spriteSourceSize": {
						"x": 404,
						"y": 118,
						"w": 478,
						"h": 602
					},
					"frame": {
						"x": 1,
						"y": 1445,
						"w": 478,
						"h": 602
					}
				},
				{
					"filename": "win_animation_026",
					"rotated": false,
					"trimmed": true,
					"sourceSize": {
						"w": 904,
						"h": 720
					},
					"spriteSourceSize": {
						"x": 108,
						"y": 0,
						"w": 793,
						"h": 720
					},
					"frame": {
						"x": 899,
						"y": 1,
						"w": 793,
						"h": 720
					}
				},
				{
					"filename": "win_animation_029",
					"rotated": false,
					"trimmed": true,
					"sourceSize": {
						"w": 904,
						"h": 720
					},
					"spriteSourceSize": {
						"x": 0,
						"y": 352,
						"w": 873,
						"h": 368
					},
					"frame": {
						"x": 894,
						"y": 723,
						"w": 873,
						"h": 368
					}
				},
				{
					"filename": "win_animation_030",
					"rotated": false,
					"trimmed": true,
					"sourceSize": {
						"w": 904,
						"h": 720
					},
					"spriteSourceSize": {
						"x": 0,
						"y": 370,
						"w": 856,
						"h": 350
					},
					"frame": {
						"x": 894,
						"y": 1093,
						"w": 856,
						"h": 350
					}
				},
				{
					"filename": "win_animation_016",
					"rotated": false,
					"trimmed": true,
					"sourceSize": {
						"w": 904,
						"h": 720
					},
					"spriteSourceSize": {
						"x": 397,
						"y": 125,
						"w": 494,
						"h": 595
					},
					"frame": {
						"x": 481,
						"y": 1445,
						"w": 494,
						"h": 595
					}
				},
				{
					"filename": "win_animation_009",
					"rotated": false,
					"trimmed": true,
					"sourceSize": {
						"w": 904,
						"h": 720
					},
					"spriteSourceSize": {
						"x": 480,
						"y": 128,
						"w": 417,
						"h": 592
					},
					"frame": {
						"x": 977,
						"y": 1445,
						"w": 417,
						"h": 592
					}
				},
				{
					"filename": "win_animation_003",
					"rotated": false,
					"trimmed": true,
					"sourceSize": {
						"w": 904,
						"h": 720
					},
					"spriteSourceSize": {
						"x": 520,
						"y": 123,
						"w": 270,
						"h": 597
					},
					"frame": {
						"x": 1694,
						"y": 1,
						"w": 270,
						"h": 597
					}
				},
				{
					"filename": "win_animation_004",
					"rotated": false,
					"trimmed": true,
					"sourceSize": {
						"w": 904,
						"h": 720
					},
					"spriteSourceSize": {
						"x": 516,
						"y": 91,
						"w": 277,
						"h": 559
					},
					"frame": {
						"x": 1396,
						"y": 1445,
						"w": 277,
						"h": 559
					}
				},
				{
					"filename": "win_animation_002",
					"rotated": false,
					"trimmed": true,
					"sourceSize": {
						"w": 904,
						"h": 720
					},
					"spriteSourceSize": {
						"x": 525,
						"y": 152,
						"w": 262,
						"h": 568
					},
					"frame": {
						"x": 1675,
						"y": 1445,
						"w": 262,
						"h": 568
					}
				},
				{
					"filename": "win_animation_001",
					"rotated": false,
					"trimmed": true,
					"sourceSize": {
						"w": 904,
						"h": 720
					},
					"spriteSourceSize": {
						"x": 525,
						"y": 155,
						"w": 260,
						"h": 565
					},
					"frame": {
						"x": 1769,
						"y": 600,
						"w": 260,
						"h": 565
					}
				}
			]
		},
		{
			"image": "assets/atlases/gamble-1.png",
			"format": "RGBA8888",
			"size": {
				"w": 1894,
				"h": 2048
			},
			"scale": 1,
			"frames": [
				{
					"filename": "win_animation_025",
					"rotated": false,
					"trimmed": true,
					"sourceSize": {
						"w": 904,
						"h": 720
					},
					"spriteSourceSize": {
						"x": 181,
						"y": 0,
						"w": 715,
						"h": 720
					},
					"frame": {
						"x": 1,
						"y": 1,
						"w": 715,
						"h": 720
					}
				},
				{
					"filename": "win_animation_021",
					"rotated": false,
					"trimmed": true,
					"sourceSize": {
						"w": 904,
						"h": 720
					},
					"spriteSourceSize": {
						"x": 375,
						"y": 10,
						"w": 496,
						"h": 710
					},
					"frame": {
						"x": 718,
						"y": 1,
						"w": 496,
						"h": 710
					}
				},
				{
					"filename": "win_animation_024",
					"rotated": false,
					"trimmed": true,
					"sourceSize": {
						"w": 904,
						"h": 720
					},
					"spriteSourceSize": {
						"x": 247,
						"y": 21,
						"w": 639,
						"h": 699
					},
					"frame": {
						"x": 718,
						"y": 713,
						"w": 639,
						"h": 699
					}
				},
				{
					"filename": "win_animation_023",
					"rotated": false,
					"trimmed": true,
					"sourceSize": {
						"w": 904,
						"h": 720
					},
					"spriteSourceSize": {
						"x": 299,
						"y": 34,
						"w": 576,
						"h": 686
					},
					"frame": {
						"x": 1216,
						"y": 1,
						"w": 576,
						"h": 686
					}
				},
				{
					"filename": "win_animation_020",
					"rotated": false,
					"trimmed": true,
					"sourceSize": {
						"w": 904,
						"h": 720
					},
					"spriteSourceSize": {
						"x": 395,
						"y": 16,
						"w": 491,
						"h": 704
					},
					"frame": {
						"x": 1,
						"y": 723,
						"w": 491,
						"h": 704
					}
				},
				{
					"filename": "win_animation_022",
					"rotated": false,
					"trimmed": true,
					"sourceSize": {
						"w": 904,
						"h": 720
					},
					"spriteSourceSize": {
						"x": 339,
						"y": 20,
						"w": 534,
						"h": 700
					},
					"frame": {
						"x": 1359,
						"y": 689,
						"w": 534,
						"h": 700
					}
				},
				{
					"filename": "win_animation_017",
					"rotated": false,
					"trimmed": true,
					"sourceSize": {
						"w": 904,
						"h": 720
					},
					"spriteSourceSize": {
						"x": 395,
						"y": 102,
						"w": 501,
						"h": 618
					},
					"frame": {
						"x": 1359,
						"y": 1391,
						"w": 501,
						"h": 618
					}
				},
				{
					"filename": "win_animation_014",
					"rotated": false,
					"trimmed": true,
					"sourceSize": {
						"w": 904,
						"h": 720
					},
					"spriteSourceSize": {
						"x": 420,
						"y": 99,
						"w": 447,
						"h": 621
					},
					"frame": {
						"x": 494,
						"y": 1414,
						"w": 447,
						"h": 621
					}
				},
				{
					"filename": "win_animation_011",
					"rotated": false,
					"trimmed": true,
					"sourceSize": {
						"w": 904,
						"h": 720
					},
					"spriteSourceSize": {
						"x": 462,
						"y": 87,
						"w": 394,
						"h": 633
					},
					"frame": {
						"x": 943,
						"y": 1414,
						"w": 394,
						"h": 633
					}
				},
				{
					"filename": "win_animation_010",
					"rotated": false,
					"trimmed": true,
					"sourceSize": {
						"w": 904,
						"h": 720
					},
					"spriteSourceSize": {
						"x": 474,
						"y": 106,
						"w": 430,
						"h": 614
					},
					"frame": {
						"x": 1,
						"y": 1429,
						"w": 430,
						"h": 614
					}
				}
			]
		},
		{
			"image": "assets/atlases/gamble-2.png",
			"format": "RGBA8888",
			"size": {
				"w": 1709,
				"h": 1292
			},
			"scale": 1,
			"frames": [
				{
					"filename": "win_animation_019",
					"rotated": false,
					"trimmed": true,
					"sourceSize": {
						"w": 904,
						"h": 720
					},
					"spriteSourceSize": {
						"x": 399,
						"y": 38,
						"w": 493,
						"h": 682
					},
					"frame": {
						"x": 1,
						"y": 1,
						"w": 493,
						"h": 682
					}
				},
				{
					"filename": "win_animation_008",
					"rotated": false,
					"trimmed": true,
					"sourceSize": {
						"w": 904,
						"h": 720
					},
					"spriteSourceSize": {
						"x": 490,
						"y": 149,
						"w": 383,
						"h": 545
					},
					"frame": {
						"x": 1,
						"y": 685,
						"w": 383,
						"h": 545
					}
				},
				{
					"filename": "win_animation_007",
					"rotated": false,
					"trimmed": true,
					"sourceSize": {
						"w": 904,
						"h": 720
					},
					"spriteSourceSize": {
						"x": 499,
						"y": 161,
						"w": 349,
						"h": 509
					},
					"frame": {
						"x": 386,
						"y": 685,
						"w": 349,
						"h": 509
					}
				},
				{
					"filename": "win_animation_018",
					"rotated": false,
					"trimmed": true,
					"sourceSize": {
						"w": 904,
						"h": 720
					},
					"spriteSourceSize": {
						"x": 396,
						"y": 70,
						"w": 499,
						"h": 650
					},
					"frame": {
						"x": 496,
						"y": 1,
						"w": 499,
						"h": 650
					}
				},
				{
					"filename": "win_animation_013",
					"rotated": false,
					"trimmed": true,
					"sourceSize": {
						"w": 904,
						"h": 720
					},
					"spriteSourceSize": {
						"x": 434,
						"y": 82,
						"w": 423,
						"h": 638
					},
					"frame": {
						"x": 737,
						"y": 653,
						"w": 423,
						"h": 638
					}
				},
				{
					"filename": "win_animation_012",
					"rotated": false,
					"trimmed": true,
					"sourceSize": {
						"w": 904,
						"h": 720
					},
					"spriteSourceSize": {
						"x": 449,
						"y": 79,
						"w": 400,
						"h": 641
					},
					"frame": {
						"x": 997,
						"y": 1,
						"w": 400,
						"h": 641
					}
				},
				{
					"filename": "win_animation_006",
					"rotated": false,
					"trimmed": true,
					"sourceSize": {
						"w": 904,
						"h": 720
					},
					"spriteSourceSize": {
						"x": 507,
						"y": 142,
						"w": 337,
						"h": 508
					},
					"frame": {
						"x": 1162,
						"y": 644,
						"w": 337,
						"h": 508
					}
				},
				{
					"filename": "win_animation_005",
					"rotated": false,
					"trimmed": true,
					"sourceSize": {
						"w": 904,
						"h": 720
					},
					"spriteSourceSize": {
						"x": 513,
						"y": 98,
						"w": 309,
						"h": 548
					},
					"frame": {
						"x": 1399,
						"y": 1,
						"w": 309,
						"h": 548
					}
				}
			]
		}
	],
	"meta": {
		"app": "https://www.codeandweb.com/texturepacker",
		"version": "3.0",
		"smartupdate": "$TexturePacker:SmartUpdate:46a567f362641b825f0f8fc11d2af4f2:6abc7b374204c948c02464511ff35d10:340c5e64ac123afb45cb25bdd21543ad$"
	}
}
