{"frames": {

"Q_000":
{
	"frame": {"x":1,"y":1,"w":184,"h":168},
	"rotated": false,
	"trimmed": false,
	"spriteSourceSize": {"x":0,"y":0,"w":184,"h":168},
	"sourceSize": {"w":184,"h":168}
},
"Q_001":
{
	"frame": {"x":187,"y":1,"w":184,"h":168},
	"rotated": false,
	"trimmed": false,
	"spriteSourceSize": {"x":0,"y":0,"w":184,"h":168},
	"sourceSize": {"w":184,"h":168}
},
"Q_002":
{
	"frame": {"x":373,"y":1,"w":184,"h":168},
	"rotated": false,
	"trimmed": false,
	"spriteSourceSize": {"x":0,"y":0,"w":184,"h":168},
	"sourceSize": {"w":184,"h":168}
},
"Q_003":
{
	"frame": {"x":559,"y":1,"w":184,"h":168},
	"rotated": false,
	"trimmed": false,
	"spriteSourceSize": {"x":0,"y":0,"w":184,"h":168},
	"sourceSize": {"w":184,"h":168}
},
"Q_004":
{
	"frame": {"x":745,"y":1,"w":184,"h":168},
	"rotated": false,
	"trimmed": false,
	"spriteSourceSize": {"x":0,"y":0,"w":184,"h":168},
	"sourceSize": {"w":184,"h":168}
},
"Q_005":
{
	"frame": {"x":931,"y":1,"w":184,"h":168},
	"rotated": false,
	"trimmed": false,
	"spriteSourceSize": {"x":0,"y":0,"w":184,"h":168},
	"sourceSize": {"w":184,"h":168}
},
"Q_006":
{
	"frame": {"x":1117,"y":1,"w":184,"h":168},
	"rotated": false,
	"trimmed": false,
	"spriteSourceSize": {"x":0,"y":0,"w":184,"h":168},
	"sourceSize": {"w":184,"h":168}
},
"Q_007":
{
	"frame": {"x":1303,"y":1,"w":184,"h":168},
	"rotated": false,
	"trimmed": false,
	"spriteSourceSize": {"x":0,"y":0,"w":184,"h":168},
	"sourceSize": {"w":184,"h":168}
},
"Q_008":
{
	"frame": {"x":1489,"y":1,"w":184,"h":168},
	"rotated": false,
	"trimmed": false,
	"spriteSourceSize": {"x":0,"y":0,"w":184,"h":168},
	"sourceSize": {"w":184,"h":168}
},
"Q_009":
{
	"frame": {"x":1675,"y":1,"w":184,"h":168},
	"rotated": false,
	"trimmed": false,
	"spriteSourceSize": {"x":0,"y":0,"w":184,"h":168},
	"sourceSize": {"w":184,"h":168}
},
"Q_010":
{
	"frame": {"x":1861,"y":1,"w":184,"h":168},
	"rotated": false,
	"trimmed": false,
	"spriteSourceSize": {"x":0,"y":0,"w":184,"h":168},
	"sourceSize": {"w":184,"h":168}
},
"Q_011":
{
	"frame": {"x":1,"y":171,"w":184,"h":168},
	"rotated": false,
	"trimmed": false,
	"spriteSourceSize": {"x":0,"y":0,"w":184,"h":168},
	"sourceSize": {"w":184,"h":168}
},
"Q_012":
{
	"frame": {"x":1,"y":341,"w":184,"h":168},
	"rotated": false,
	"trimmed": false,
	"spriteSourceSize": {"x":0,"y":0,"w":184,"h":168},
	"sourceSize": {"w":184,"h":168}
},
"Q_013":
{
	"frame": {"x":1,"y":511,"w":184,"h":168},
	"rotated": false,
	"trimmed": false,
	"spriteSourceSize": {"x":0,"y":0,"w":184,"h":168},
	"sourceSize": {"w":184,"h":168}
},
"Q_014":
{
	"frame": {"x":1,"y":681,"w":184,"h":168},
	"rotated": false,
	"trimmed": false,
	"spriteSourceSize": {"x":0,"y":0,"w":184,"h":168},
	"sourceSize": {"w":184,"h":168}
},
"Q_015":
{
	"frame": {"x":1,"y":851,"w":184,"h":168},
	"rotated": false,
	"trimmed": false,
	"spriteSourceSize": {"x":0,"y":0,"w":184,"h":168},
	"sourceSize": {"w":184,"h":168}
},
"Q_016":
{
	"frame": {"x":1,"y":1021,"w":184,"h":168},
	"rotated": false,
	"trimmed": false,
	"spriteSourceSize": {"x":0,"y":0,"w":184,"h":168},
	"sourceSize": {"w":184,"h":168}
},
"Q_017":
{
	"frame": {"x":1,"y":1191,"w":184,"h":168},
	"rotated": false,
	"trimmed": false,
	"spriteSourceSize": {"x":0,"y":0,"w":184,"h":168},
	"sourceSize": {"w":184,"h":168}
},
"Q_018":
{
	"frame": {"x":1,"y":1361,"w":184,"h":168},
	"rotated": false,
	"trimmed": false,
	"spriteSourceSize": {"x":0,"y":0,"w":184,"h":168},
	"sourceSize": {"w":184,"h":168}
},
"Q_019":
{
	"frame": {"x":1,"y":1531,"w":184,"h":168},
	"rotated": false,
	"trimmed": false,
	"spriteSourceSize": {"x":0,"y":0,"w":184,"h":168},
	"sourceSize": {"w":184,"h":168}
},
"q_bl":
{
	"frame": {"x":1,"y":1701,"w":184,"h":168},
	"rotated": false,
	"trimmed": false,
	"spriteSourceSize": {"x":0,"y":0,"w":184,"h":168},
	"sourceSize": {"w":184,"h":168}
},
"seashell_000":
{
	"frame": {"x":1,"y":1871,"w":184,"h":168},
	"rotated": false,
	"trimmed": false,
	"spriteSourceSize": {"x":0,"y":0,"w":184,"h":168},
	"sourceSize": {"w":184,"h":168}
},
"seashell_001":
{
	"frame": {"x":187,"y":171,"w":184,"h":168},
	"rotated": false,
	"trimmed": false,
	"spriteSourceSize": {"x":0,"y":0,"w":184,"h":168},
	"sourceSize": {"w":184,"h":168}
},
"seashell_002":
{
	"frame": {"x":373,"y":171,"w":184,"h":168},
	"rotated": false,
	"trimmed": false,
	"spriteSourceSize": {"x":0,"y":0,"w":184,"h":168},
	"sourceSize": {"w":184,"h":168}
},
"seashell_003":
{
	"frame": {"x":559,"y":171,"w":184,"h":168},
	"rotated": false,
	"trimmed": false,
	"spriteSourceSize": {"x":0,"y":0,"w":184,"h":168},
	"sourceSize": {"w":184,"h":168}
},
"seashell_004":
{
	"frame": {"x":745,"y":171,"w":184,"h":168},
	"rotated": false,
	"trimmed": false,
	"spriteSourceSize": {"x":0,"y":0,"w":184,"h":168},
	"sourceSize": {"w":184,"h":168}
},
"seashell_005":
{
	"frame": {"x":931,"y":171,"w":184,"h":168},
	"rotated": false,
	"trimmed": false,
	"spriteSourceSize": {"x":0,"y":0,"w":184,"h":168},
	"sourceSize": {"w":184,"h":168}
},
"seashell_006":
{
	"frame": {"x":1117,"y":171,"w":184,"h":168},
	"rotated": false,
	"trimmed": false,
	"spriteSourceSize": {"x":0,"y":0,"w":184,"h":168},
	"sourceSize": {"w":184,"h":168}
},
"seashell_007":
{
	"frame": {"x":1303,"y":171,"w":184,"h":168},
	"rotated": false,
	"trimmed": false,
	"spriteSourceSize": {"x":0,"y":0,"w":184,"h":168},
	"sourceSize": {"w":184,"h":168}
},
"seashell_008":
{
	"frame": {"x":1489,"y":171,"w":184,"h":168},
	"rotated": false,
	"trimmed": false,
	"spriteSourceSize": {"x":0,"y":0,"w":184,"h":168},
	"sourceSize": {"w":184,"h":168}
},
"seashell_009":
{
	"frame": {"x":1675,"y":171,"w":184,"h":168},
	"rotated": false,
	"trimmed": false,
	"spriteSourceSize": {"x":0,"y":0,"w":184,"h":168},
	"sourceSize": {"w":184,"h":168}
},
"seashell_010":
{
	"frame": {"x":1861,"y":171,"w":184,"h":168},
	"rotated": false,
	"trimmed": false,
	"spriteSourceSize": {"x":0,"y":0,"w":184,"h":168},
	"sourceSize": {"w":184,"h":168}
},
"seashell_011":
{
	"frame": {"x":187,"y":341,"w":184,"h":168},
	"rotated": false,
	"trimmed": false,
	"spriteSourceSize": {"x":0,"y":0,"w":184,"h":168},
	"sourceSize": {"w":184,"h":168}
},
"seashell_012":
{
	"frame": {"x":187,"y":511,"w":184,"h":168},
	"rotated": false,
	"trimmed": false,
	"spriteSourceSize": {"x":0,"y":0,"w":184,"h":168},
	"sourceSize": {"w":184,"h":168}
},
"seashell_013":
{
	"frame": {"x":187,"y":681,"w":184,"h":168},
	"rotated": false,
	"trimmed": false,
	"spriteSourceSize": {"x":0,"y":0,"w":184,"h":168},
	"sourceSize": {"w":184,"h":168}
},
"seashell_014":
{
	"frame": {"x":187,"y":851,"w":184,"h":168},
	"rotated": false,
	"trimmed": false,
	"spriteSourceSize": {"x":0,"y":0,"w":184,"h":168},
	"sourceSize": {"w":184,"h":168}
},
"seashell_015":
{
	"frame": {"x":187,"y":1021,"w":184,"h":168},
	"rotated": false,
	"trimmed": false,
	"spriteSourceSize": {"x":0,"y":0,"w":184,"h":168},
	"sourceSize": {"w":184,"h":168}
},
"seashell_016":
{
	"frame": {"x":187,"y":1191,"w":184,"h":168},
	"rotated": false,
	"trimmed": false,
	"spriteSourceSize": {"x":0,"y":0,"w":184,"h":168},
	"sourceSize": {"w":184,"h":168}
},
"seashell_017":
{
	"frame": {"x":187,"y":1361,"w":184,"h":168},
	"rotated": false,
	"trimmed": false,
	"spriteSourceSize": {"x":0,"y":0,"w":184,"h":168},
	"sourceSize": {"w":184,"h":168}
},
"seashell_018":
{
	"frame": {"x":187,"y":1531,"w":184,"h":168},
	"rotated": false,
	"trimmed": false,
	"spriteSourceSize": {"x":0,"y":0,"w":184,"h":168},
	"sourceSize": {"w":184,"h":168}
},
"seashell_019":
{
	"frame": {"x":187,"y":1701,"w":184,"h":168},
	"rotated": false,
	"trimmed": false,
	"spriteSourceSize": {"x":0,"y":0,"w":184,"h":168},
	"sourceSize": {"w":184,"h":168}
},
"seashell_020":
{
	"frame": {"x":187,"y":1871,"w":184,"h":168},
	"rotated": false,
	"trimmed": false,
	"spriteSourceSize": {"x":0,"y":0,"w":184,"h":168},
	"sourceSize": {"w":184,"h":168}
},
"seashell_021":
{
	"frame": {"x":373,"y":341,"w":184,"h":168},
	"rotated": false,
	"trimmed": false,
	"spriteSourceSize": {"x":0,"y":0,"w":184,"h":168},
	"sourceSize": {"w":184,"h":168}
},
"seashell_022":
{
	"frame": {"x":559,"y":341,"w":184,"h":168},
	"rotated": false,
	"trimmed": false,
	"spriteSourceSize": {"x":0,"y":0,"w":184,"h":168},
	"sourceSize": {"w":184,"h":168}
},
"seashell_023":
{
	"frame": {"x":745,"y":341,"w":184,"h":168},
	"rotated": false,
	"trimmed": false,
	"spriteSourceSize": {"x":0,"y":0,"w":184,"h":168},
	"sourceSize": {"w":184,"h":168}
},
"seashell_024":
{
	"frame": {"x":931,"y":341,"w":184,"h":168},
	"rotated": false,
	"trimmed": false,
	"spriteSourceSize": {"x":0,"y":0,"w":184,"h":168},
	"sourceSize": {"w":184,"h":168}
},
"seashell_025":
{
	"frame": {"x":1117,"y":341,"w":184,"h":168},
	"rotated": false,
	"trimmed": false,
	"spriteSourceSize": {"x":0,"y":0,"w":184,"h":168},
	"sourceSize": {"w":184,"h":168}
},
"seashell_026":
{
	"frame": {"x":1303,"y":341,"w":184,"h":168},
	"rotated": false,
	"trimmed": false,
	"spriteSourceSize": {"x":0,"y":0,"w":184,"h":168},
	"sourceSize": {"w":184,"h":168}
},
"seashell_027":
{
	"frame": {"x":1489,"y":341,"w":184,"h":168},
	"rotated": false,
	"trimmed": false,
	"spriteSourceSize": {"x":0,"y":0,"w":184,"h":168},
	"sourceSize": {"w":184,"h":168}
},
"seashell_028":
{
	"frame": {"x":1675,"y":341,"w":184,"h":168},
	"rotated": false,
	"trimmed": false,
	"spriteSourceSize": {"x":0,"y":0,"w":184,"h":168},
	"sourceSize": {"w":184,"h":168}
},
"seashell_029":
{
	"frame": {"x":1861,"y":341,"w":184,"h":168},
	"rotated": false,
	"trimmed": false,
	"spriteSourceSize": {"x":0,"y":0,"w":184,"h":168},
	"sourceSize": {"w":184,"h":168}
},
"seashell_030":
{
	"frame": {"x":373,"y":511,"w":184,"h":168},
	"rotated": false,
	"trimmed": false,
	"spriteSourceSize": {"x":0,"y":0,"w":184,"h":168},
	"sourceSize": {"w":184,"h":168}
},
"seashell_031":
{
	"frame": {"x":373,"y":681,"w":184,"h":168},
	"rotated": false,
	"trimmed": false,
	"spriteSourceSize": {"x":0,"y":0,"w":184,"h":168},
	"sourceSize": {"w":184,"h":168}
},
"seashell_032":
{
	"frame": {"x":373,"y":851,"w":184,"h":168},
	"rotated": false,
	"trimmed": false,
	"spriteSourceSize": {"x":0,"y":0,"w":184,"h":168},
	"sourceSize": {"w":184,"h":168}
},
"seashell_033":
{
	"frame": {"x":373,"y":1021,"w":184,"h":168},
	"rotated": false,
	"trimmed": false,
	"spriteSourceSize": {"x":0,"y":0,"w":184,"h":168},
	"sourceSize": {"w":184,"h":168}
},
"seashell_034":
{
	"frame": {"x":373,"y":1191,"w":184,"h":168},
	"rotated": false,
	"trimmed": false,
	"spriteSourceSize": {"x":0,"y":0,"w":184,"h":168},
	"sourceSize": {"w":184,"h":168}
},
"seashell_035":
{
	"frame": {"x":373,"y":1361,"w":184,"h":168},
	"rotated": false,
	"trimmed": false,
	"spriteSourceSize": {"x":0,"y":0,"w":184,"h":168},
	"sourceSize": {"w":184,"h":168}
},
"seashell_036":
{
	"frame": {"x":373,"y":1531,"w":184,"h":168},
	"rotated": false,
	"trimmed": false,
	"spriteSourceSize": {"x":0,"y":0,"w":184,"h":168},
	"sourceSize": {"w":184,"h":168}
},
"seashell_037":
{
	"frame": {"x":373,"y":1701,"w":184,"h":168},
	"rotated": false,
	"trimmed": false,
	"spriteSourceSize": {"x":0,"y":0,"w":184,"h":168},
	"sourceSize": {"w":184,"h":168}
},
"seashell_038":
{
	"frame": {"x":373,"y":1871,"w":184,"h":168},
	"rotated": false,
	"trimmed": false,
	"spriteSourceSize": {"x":0,"y":0,"w":184,"h":168},
	"sourceSize": {"w":184,"h":168}
},
"seashell_039":
{
	"frame": {"x":559,"y":511,"w":184,"h":168},
	"rotated": false,
	"trimmed": false,
	"spriteSourceSize": {"x":0,"y":0,"w":184,"h":168},
	"sourceSize": {"w":184,"h":168}
},
"seashell_040":
{
	"frame": {"x":745,"y":511,"w":184,"h":168},
	"rotated": false,
	"trimmed": false,
	"spriteSourceSize": {"x":0,"y":0,"w":184,"h":168},
	"sourceSize": {"w":184,"h":168}
},
"seashell_041":
{
	"frame": {"x":931,"y":511,"w":184,"h":168},
	"rotated": false,
	"trimmed": false,
	"spriteSourceSize": {"x":0,"y":0,"w":184,"h":168},
	"sourceSize": {"w":184,"h":168}
},
"seashell_042":
{
	"frame": {"x":1117,"y":511,"w":184,"h":168},
	"rotated": false,
	"trimmed": false,
	"spriteSourceSize": {"x":0,"y":0,"w":184,"h":168},
	"sourceSize": {"w":184,"h":168}
},
"seashell_043":
{
	"frame": {"x":1303,"y":511,"w":184,"h":168},
	"rotated": false,
	"trimmed": false,
	"spriteSourceSize": {"x":0,"y":0,"w":184,"h":168},
	"sourceSize": {"w":184,"h":168}
},
"seashell_044":
{
	"frame": {"x":1489,"y":511,"w":184,"h":168},
	"rotated": false,
	"trimmed": false,
	"spriteSourceSize": {"x":0,"y":0,"w":184,"h":168},
	"sourceSize": {"w":184,"h":168}
},
"seashell_045":
{
	"frame": {"x":1675,"y":511,"w":184,"h":168},
	"rotated": false,
	"trimmed": false,
	"spriteSourceSize": {"x":0,"y":0,"w":184,"h":168},
	"sourceSize": {"w":184,"h":168}
},
"seashell_046":
{
	"frame": {"x":1861,"y":511,"w":184,"h":168},
	"rotated": false,
	"trimmed": false,
	"spriteSourceSize": {"x":0,"y":0,"w":184,"h":168},
	"sourceSize": {"w":184,"h":168}
},
"seashell_047":
{
	"frame": {"x":559,"y":681,"w":184,"h":168},
	"rotated": false,
	"trimmed": false,
	"spriteSourceSize": {"x":0,"y":0,"w":184,"h":168},
	"sourceSize": {"w":184,"h":168}
},
"seashell_048":
{
	"frame": {"x":559,"y":851,"w":184,"h":168},
	"rotated": false,
	"trimmed": false,
	"spriteSourceSize": {"x":0,"y":0,"w":184,"h":168},
	"sourceSize": {"w":184,"h":168}
},
"seashell_049":
{
	"frame": {"x":559,"y":1021,"w":184,"h":168},
	"rotated": false,
	"trimmed": false,
	"spriteSourceSize": {"x":0,"y":0,"w":184,"h":168},
	"sourceSize": {"w":184,"h":168}
},
"seashell_050":
{
	"frame": {"x":559,"y":1191,"w":184,"h":168},
	"rotated": false,
	"trimmed": false,
	"spriteSourceSize": {"x":0,"y":0,"w":184,"h":168},
	"sourceSize": {"w":184,"h":168}
},
"seashell_051":
{
	"frame": {"x":559,"y":1361,"w":184,"h":168},
	"rotated": false,
	"trimmed": false,
	"spriteSourceSize": {"x":0,"y":0,"w":184,"h":168},
	"sourceSize": {"w":184,"h":168}
},
"seashell_052":
{
	"frame": {"x":559,"y":1531,"w":184,"h":168},
	"rotated": false,
	"trimmed": false,
	"spriteSourceSize": {"x":0,"y":0,"w":184,"h":168},
	"sourceSize": {"w":184,"h":168}
},
"seashell_053":
{
	"frame": {"x":559,"y":1701,"w":184,"h":168},
	"rotated": false,
	"trimmed": false,
	"spriteSourceSize": {"x":0,"y":0,"w":184,"h":168},
	"sourceSize": {"w":184,"h":168}
},
"seashell_054":
{
	"frame": {"x":559,"y":1871,"w":184,"h":168},
	"rotated": false,
	"trimmed": false,
	"spriteSourceSize": {"x":0,"y":0,"w":184,"h":168},
	"sourceSize": {"w":184,"h":168}
},
"seashell_055":
{
	"frame": {"x":745,"y":681,"w":184,"h":168},
	"rotated": false,
	"trimmed": false,
	"spriteSourceSize": {"x":0,"y":0,"w":184,"h":168},
	"sourceSize": {"w":184,"h":168}
},
"seashell_056":
{
	"frame": {"x":931,"y":681,"w":184,"h":168},
	"rotated": false,
	"trimmed": false,
	"spriteSourceSize": {"x":0,"y":0,"w":184,"h":168},
	"sourceSize": {"w":184,"h":168}
},
"seashell_057":
{
	"frame": {"x":1117,"y":681,"w":184,"h":168},
	"rotated": false,
	"trimmed": false,
	"spriteSourceSize": {"x":0,"y":0,"w":184,"h":168},
	"sourceSize": {"w":184,"h":168}
},
"seashell_058":
{
	"frame": {"x":1303,"y":681,"w":184,"h":168},
	"rotated": false,
	"trimmed": false,
	"spriteSourceSize": {"x":0,"y":0,"w":184,"h":168},
	"sourceSize": {"w":184,"h":168}
},
"seashell_059":
{
	"frame": {"x":1489,"y":681,"w":184,"h":168},
	"rotated": false,
	"trimmed": false,
	"spriteSourceSize": {"x":0,"y":0,"w":184,"h":168},
	"sourceSize": {"w":184,"h":168}
},
"seashell_060":
{
	"frame": {"x":1675,"y":681,"w":184,"h":168},
	"rotated": false,
	"trimmed": false,
	"spriteSourceSize": {"x":0,"y":0,"w":184,"h":168},
	"sourceSize": {"w":184,"h":168}
},
"seashell_061":
{
	"frame": {"x":1861,"y":681,"w":184,"h":168},
	"rotated": false,
	"trimmed": false,
	"spriteSourceSize": {"x":0,"y":0,"w":184,"h":168},
	"sourceSize": {"w":184,"h":168}
},
"seashell_062":
{
	"frame": {"x":745,"y":851,"w":184,"h":168},
	"rotated": false,
	"trimmed": false,
	"spriteSourceSize": {"x":0,"y":0,"w":184,"h":168},
	"sourceSize": {"w":184,"h":168}
},
"seashell_063":
{
	"frame": {"x":745,"y":1021,"w":184,"h":168},
	"rotated": false,
	"trimmed": false,
	"spriteSourceSize": {"x":0,"y":0,"w":184,"h":168},
	"sourceSize": {"w":184,"h":168}
},
"seashell_064":
{
	"frame": {"x":745,"y":1191,"w":184,"h":168},
	"rotated": false,
	"trimmed": false,
	"spriteSourceSize": {"x":0,"y":0,"w":184,"h":168},
	"sourceSize": {"w":184,"h":168}
},
"seashell_065":
{
	"frame": {"x":745,"y":1361,"w":184,"h":168},
	"rotated": false,
	"trimmed": false,
	"spriteSourceSize": {"x":0,"y":0,"w":184,"h":168},
	"sourceSize": {"w":184,"h":168}
},
"seashell_066":
{
	"frame": {"x":745,"y":1531,"w":184,"h":168},
	"rotated": false,
	"trimmed": false,
	"spriteSourceSize": {"x":0,"y":0,"w":184,"h":168},
	"sourceSize": {"w":184,"h":168}
},
"seashell_067":
{
	"frame": {"x":745,"y":1701,"w":184,"h":168},
	"rotated": false,
	"trimmed": false,
	"spriteSourceSize": {"x":0,"y":0,"w":184,"h":168},
	"sourceSize": {"w":184,"h":168}
},
"seashell_068":
{
	"frame": {"x":745,"y":1871,"w":184,"h":168},
	"rotated": false,
	"trimmed": false,
	"spriteSourceSize": {"x":0,"y":0,"w":184,"h":168},
	"sourceSize": {"w":184,"h":168}
},
"seashell_069":
{
	"frame": {"x":931,"y":851,"w":184,"h":168},
	"rotated": false,
	"trimmed": false,
	"spriteSourceSize": {"x":0,"y":0,"w":184,"h":168},
	"sourceSize": {"w":184,"h":168}
},
"seashell_070":
{
	"frame": {"x":1117,"y":851,"w":184,"h":168},
	"rotated": false,
	"trimmed": false,
	"spriteSourceSize": {"x":0,"y":0,"w":184,"h":168},
	"sourceSize": {"w":184,"h":168}
},
"seashell_071":
{
	"frame": {"x":1303,"y":851,"w":184,"h":168},
	"rotated": false,
	"trimmed": false,
	"spriteSourceSize": {"x":0,"y":0,"w":184,"h":168},
	"sourceSize": {"w":184,"h":168}
},
"seashell_072":
{
	"frame": {"x":1489,"y":851,"w":184,"h":168},
	"rotated": false,
	"trimmed": false,
	"spriteSourceSize": {"x":0,"y":0,"w":184,"h":168},
	"sourceSize": {"w":184,"h":168}
},
"seashell_073":
{
	"frame": {"x":1675,"y":851,"w":184,"h":168},
	"rotated": false,
	"trimmed": false,
	"spriteSourceSize": {"x":0,"y":0,"w":184,"h":168},
	"sourceSize": {"w":184,"h":168}
},
"seashell_074":
{
	"frame": {"x":1861,"y":851,"w":184,"h":168},
	"rotated": false,
	"trimmed": false,
	"spriteSourceSize": {"x":0,"y":0,"w":184,"h":168},
	"sourceSize": {"w":184,"h":168}
},
"seashell_075":
{
	"frame": {"x":931,"y":1021,"w":184,"h":168},
	"rotated": false,
	"trimmed": false,
	"spriteSourceSize": {"x":0,"y":0,"w":184,"h":168},
	"sourceSize": {"w":184,"h":168}
},
"seashell_076":
{
	"frame": {"x":931,"y":1191,"w":184,"h":168},
	"rotated": false,
	"trimmed": false,
	"spriteSourceSize": {"x":0,"y":0,"w":184,"h":168},
	"sourceSize": {"w":184,"h":168}
},
"seashell_077":
{
	"frame": {"x":931,"y":1361,"w":184,"h":168},
	"rotated": false,
	"trimmed": false,
	"spriteSourceSize": {"x":0,"y":0,"w":184,"h":168},
	"sourceSize": {"w":184,"h":168}
},
"seashell_078":
{
	"frame": {"x":931,"y":1531,"w":184,"h":168},
	"rotated": false,
	"trimmed": false,
	"spriteSourceSize": {"x":0,"y":0,"w":184,"h":168},
	"sourceSize": {"w":184,"h":168}
},
"seashell_079":
{
	"frame": {"x":931,"y":1701,"w":184,"h":168},
	"rotated": false,
	"trimmed": false,
	"spriteSourceSize": {"x":0,"y":0,"w":184,"h":168},
	"sourceSize": {"w":184,"h":168}
},
"seashell_080":
{
	"frame": {"x":931,"y":1871,"w":184,"h":168},
	"rotated": false,
	"trimmed": false,
	"spriteSourceSize": {"x":0,"y":0,"w":184,"h":168},
	"sourceSize": {"w":184,"h":168}
},
"seashell_081":
{
	"frame": {"x":1117,"y":1021,"w":184,"h":168},
	"rotated": false,
	"trimmed": false,
	"spriteSourceSize": {"x":0,"y":0,"w":184,"h":168},
	"sourceSize": {"w":184,"h":168}
},
"seashell_082":
{
	"frame": {"x":1303,"y":1021,"w":184,"h":168},
	"rotated": false,
	"trimmed": false,
	"spriteSourceSize": {"x":0,"y":0,"w":184,"h":168},
	"sourceSize": {"w":184,"h":168}
},
"seashell_083":
{
	"frame": {"x":1489,"y":1021,"w":184,"h":168},
	"rotated": false,
	"trimmed": false,
	"spriteSourceSize": {"x":0,"y":0,"w":184,"h":168},
	"sourceSize": {"w":184,"h":168}
},
"seashell_084":
{
	"frame": {"x":1675,"y":1021,"w":184,"h":168},
	"rotated": false,
	"trimmed": false,
	"spriteSourceSize": {"x":0,"y":0,"w":184,"h":168},
	"sourceSize": {"w":184,"h":168}
},
"seashell_085":
{
	"frame": {"x":1861,"y":1021,"w":184,"h":168},
	"rotated": false,
	"trimmed": false,
	"spriteSourceSize": {"x":0,"y":0,"w":184,"h":168},
	"sourceSize": {"w":184,"h":168}
},
"seashell_086":
{
	"frame": {"x":1117,"y":1191,"w":184,"h":168},
	"rotated": false,
	"trimmed": false,
	"spriteSourceSize": {"x":0,"y":0,"w":184,"h":168},
	"sourceSize": {"w":184,"h":168}
},
"seashell_087":
{
	"frame": {"x":1117,"y":1361,"w":184,"h":168},
	"rotated": false,
	"trimmed": false,
	"spriteSourceSize": {"x":0,"y":0,"w":184,"h":168},
	"sourceSize": {"w":184,"h":168}
},
"seashell_088":
{
	"frame": {"x":1117,"y":1531,"w":184,"h":168},
	"rotated": false,
	"trimmed": false,
	"spriteSourceSize": {"x":0,"y":0,"w":184,"h":168},
	"sourceSize": {"w":184,"h":168}
},
"seashell_089":
{
	"frame": {"x":1117,"y":1701,"w":184,"h":168},
	"rotated": false,
	"trimmed": false,
	"spriteSourceSize": {"x":0,"y":0,"w":184,"h":168},
	"sourceSize": {"w":184,"h":168}
},
"seashell_090":
{
	"frame": {"x":1117,"y":1871,"w":184,"h":168},
	"rotated": false,
	"trimmed": false,
	"spriteSourceSize": {"x":0,"y":0,"w":184,"h":168},
	"sourceSize": {"w":184,"h":168}
},
"seashell_091":
{
	"frame": {"x":1303,"y":1191,"w":184,"h":168},
	"rotated": false,
	"trimmed": false,
	"spriteSourceSize": {"x":0,"y":0,"w":184,"h":168},
	"sourceSize": {"w":184,"h":168}
},
"seashell_092":
{
	"frame": {"x":1489,"y":1191,"w":184,"h":168},
	"rotated": false,
	"trimmed": false,
	"spriteSourceSize": {"x":0,"y":0,"w":184,"h":168},
	"sourceSize": {"w":184,"h":168}
},
"seashell_093":
{
	"frame": {"x":1675,"y":1191,"w":184,"h":168},
	"rotated": false,
	"trimmed": false,
	"spriteSourceSize": {"x":0,"y":0,"w":184,"h":168},
	"sourceSize": {"w":184,"h":168}
},
"seashell_094":
{
	"frame": {"x":1861,"y":1191,"w":184,"h":168},
	"rotated": false,
	"trimmed": false,
	"spriteSourceSize": {"x":0,"y":0,"w":184,"h":168},
	"sourceSize": {"w":184,"h":168}
},
"seashell_095":
{
	"frame": {"x":1303,"y":1361,"w":184,"h":168},
	"rotated": false,
	"trimmed": false,
	"spriteSourceSize": {"x":0,"y":0,"w":184,"h":168},
	"sourceSize": {"w":184,"h":168}
},
"seashell_096":
{
	"frame": {"x":1303,"y":1531,"w":184,"h":168},
	"rotated": false,
	"trimmed": false,
	"spriteSourceSize": {"x":0,"y":0,"w":184,"h":168},
	"sourceSize": {"w":184,"h":168}
},
"seashell_097":
{
	"frame": {"x":1303,"y":1701,"w":184,"h":168},
	"rotated": false,
	"trimmed": false,
	"spriteSourceSize": {"x":0,"y":0,"w":184,"h":168},
	"sourceSize": {"w":184,"h":168}
},
"seashell_098":
{
	"frame": {"x":1303,"y":1871,"w":184,"h":168},
	"rotated": false,
	"trimmed": false,
	"spriteSourceSize": {"x":0,"y":0,"w":184,"h":168},
	"sourceSize": {"w":184,"h":168}
},
"seashell_099":
{
	"frame": {"x":1489,"y":1361,"w":184,"h":168},
	"rotated": false,
	"trimmed": false,
	"spriteSourceSize": {"x":0,"y":0,"w":184,"h":168},
	"sourceSize": {"w":184,"h":168}
},
"seashell_bl":
{
	"frame": {"x":1675,"y":1361,"w":184,"h":168},
	"rotated": false,
	"trimmed": false,
	"spriteSourceSize": {"x":0,"y":0,"w":184,"h":168},
	"sourceSize": {"w":184,"h":168}
}},
"meta": {
	"app": "https://www.codeandweb.com/texturepacker",
	"version": "1.0",
	"image": "symbols4.png",
	"format": "RGBA8888",
	"size": {"w":2046,"h":2040},
	"scale": "1",
	"smartupdate": "$TexturePacker:SmartUpdate:fabb55bfac5dccc4a1e8a9fbda5cc3e1:5400864891f99a71ad28822193fb7679:198038df6ddfcc11bcad541235f0d50a$"
}
}
