{"frames": {

"chest_000":
{
	"frame": {"x":1,"y":1,"w":184,"h":168},
	"rotated": false,
	"trimmed": false,
	"spriteSourceSize": {"x":0,"y":0,"w":184,"h":168},
	"sourceSize": {"w":184,"h":168}
},
"chest_001":
{
	"frame": {"x":187,"y":1,"w":184,"h":168},
	"rotated": false,
	"trimmed": false,
	"spriteSourceSize": {"x":0,"y":0,"w":184,"h":168},
	"sourceSize": {"w":184,"h":168}
},
"chest_002":
{
	"frame": {"x":373,"y":1,"w":184,"h":168},
	"rotated": false,
	"trimmed": false,
	"spriteSourceSize": {"x":0,"y":0,"w":184,"h":168},
	"sourceSize": {"w":184,"h":168}
},
"chest_003":
{
	"frame": {"x":559,"y":1,"w":184,"h":168},
	"rotated": false,
	"trimmed": false,
	"spriteSourceSize": {"x":0,"y":0,"w":184,"h":168},
	"sourceSize": {"w":184,"h":168}
},
"chest_004":
{
	"frame": {"x":745,"y":1,"w":184,"h":168},
	"rotated": false,
	"trimmed": false,
	"spriteSourceSize": {"x":0,"y":0,"w":184,"h":168},
	"sourceSize": {"w":184,"h":168}
},
"chest_005":
{
	"frame": {"x":931,"y":1,"w":184,"h":168},
	"rotated": false,
	"trimmed": false,
	"spriteSourceSize": {"x":0,"y":0,"w":184,"h":168},
	"sourceSize": {"w":184,"h":168}
},
"chest_006":
{
	"frame": {"x":1117,"y":1,"w":184,"h":168},
	"rotated": false,
	"trimmed": false,
	"spriteSourceSize": {"x":0,"y":0,"w":184,"h":168},
	"sourceSize": {"w":184,"h":168}
},
"chest_007":
{
	"frame": {"x":1303,"y":1,"w":184,"h":168},
	"rotated": false,
	"trimmed": false,
	"spriteSourceSize": {"x":0,"y":0,"w":184,"h":168},
	"sourceSize": {"w":184,"h":168}
},
"chest_008":
{
	"frame": {"x":1489,"y":1,"w":184,"h":168},
	"rotated": false,
	"trimmed": false,
	"spriteSourceSize": {"x":0,"y":0,"w":184,"h":168},
	"sourceSize": {"w":184,"h":168}
},
"chest_009":
{
	"frame": {"x":1675,"y":1,"w":184,"h":168},
	"rotated": false,
	"trimmed": false,
	"spriteSourceSize": {"x":0,"y":0,"w":184,"h":168},
	"sourceSize": {"w":184,"h":168}
},
"chest_010":
{
	"frame": {"x":1861,"y":1,"w":184,"h":168},
	"rotated": false,
	"trimmed": false,
	"spriteSourceSize": {"x":0,"y":0,"w":184,"h":168},
	"sourceSize": {"w":184,"h":168}
},
"chest_011":
{
	"frame": {"x":1,"y":171,"w":184,"h":168},
	"rotated": false,
	"trimmed": false,
	"spriteSourceSize": {"x":0,"y":0,"w":184,"h":168},
	"sourceSize": {"w":184,"h":168}
},
"chest_012":
{
	"frame": {"x":1,"y":341,"w":184,"h":168},
	"rotated": false,
	"trimmed": false,
	"spriteSourceSize": {"x":0,"y":0,"w":184,"h":168},
	"sourceSize": {"w":184,"h":168}
},
"chest_013":
{
	"frame": {"x":1,"y":511,"w":184,"h":168},
	"rotated": false,
	"trimmed": false,
	"spriteSourceSize": {"x":0,"y":0,"w":184,"h":168},
	"sourceSize": {"w":184,"h":168}
},
"chest_014":
{
	"frame": {"x":1,"y":681,"w":184,"h":168},
	"rotated": false,
	"trimmed": false,
	"spriteSourceSize": {"x":0,"y":0,"w":184,"h":168},
	"sourceSize": {"w":184,"h":168}
},
"chest_015":
{
	"frame": {"x":1,"y":851,"w":184,"h":168},
	"rotated": false,
	"trimmed": false,
	"spriteSourceSize": {"x":0,"y":0,"w":184,"h":168},
	"sourceSize": {"w":184,"h":168}
},
"chest_016":
{
	"frame": {"x":1,"y":1021,"w":184,"h":168},
	"rotated": false,
	"trimmed": false,
	"spriteSourceSize": {"x":0,"y":0,"w":184,"h":168},
	"sourceSize": {"w":184,"h":168}
},
"chest_017":
{
	"frame": {"x":1,"y":1191,"w":184,"h":168},
	"rotated": false,
	"trimmed": false,
	"spriteSourceSize": {"x":0,"y":0,"w":184,"h":168},
	"sourceSize": {"w":184,"h":168}
},
"chest_018":
{
	"frame": {"x":1,"y":1361,"w":184,"h":168},
	"rotated": false,
	"trimmed": false,
	"spriteSourceSize": {"x":0,"y":0,"w":184,"h":168},
	"sourceSize": {"w":184,"h":168}
},
"chest_019":
{
	"frame": {"x":1,"y":1531,"w":184,"h":168},
	"rotated": false,
	"trimmed": false,
	"spriteSourceSize": {"x":0,"y":0,"w":184,"h":168},
	"sourceSize": {"w":184,"h":168}
},
"chest_020":
{
	"frame": {"x":1,"y":1701,"w":184,"h":168},
	"rotated": false,
	"trimmed": false,
	"spriteSourceSize": {"x":0,"y":0,"w":184,"h":168},
	"sourceSize": {"w":184,"h":168}
},
"chest_021":
{
	"frame": {"x":1,"y":1871,"w":184,"h":168},
	"rotated": false,
	"trimmed": false,
	"spriteSourceSize": {"x":0,"y":0,"w":184,"h":168},
	"sourceSize": {"w":184,"h":168}
},
"chest_022":
{
	"frame": {"x":187,"y":171,"w":184,"h":168},
	"rotated": false,
	"trimmed": false,
	"spriteSourceSize": {"x":0,"y":0,"w":184,"h":168},
	"sourceSize": {"w":184,"h":168}
},
"chest_023":
{
	"frame": {"x":373,"y":171,"w":184,"h":168},
	"rotated": false,
	"trimmed": false,
	"spriteSourceSize": {"x":0,"y":0,"w":184,"h":168},
	"sourceSize": {"w":184,"h":168}
},
"chest_024":
{
	"frame": {"x":559,"y":171,"w":184,"h":168},
	"rotated": false,
	"trimmed": false,
	"spriteSourceSize": {"x":0,"y":0,"w":184,"h":168},
	"sourceSize": {"w":184,"h":168}
},
"chest_025":
{
	"frame": {"x":745,"y":171,"w":184,"h":168},
	"rotated": false,
	"trimmed": false,
	"spriteSourceSize": {"x":0,"y":0,"w":184,"h":168},
	"sourceSize": {"w":184,"h":168}
},
"chest_026":
{
	"frame": {"x":931,"y":171,"w":184,"h":168},
	"rotated": false,
	"trimmed": false,
	"spriteSourceSize": {"x":0,"y":0,"w":184,"h":168},
	"sourceSize": {"w":184,"h":168}
},
"chest_027":
{
	"frame": {"x":1117,"y":171,"w":184,"h":168},
	"rotated": false,
	"trimmed": false,
	"spriteSourceSize": {"x":0,"y":0,"w":184,"h":168},
	"sourceSize": {"w":184,"h":168}
},
"chest_028":
{
	"frame": {"x":1303,"y":171,"w":184,"h":168},
	"rotated": false,
	"trimmed": false,
	"spriteSourceSize": {"x":0,"y":0,"w":184,"h":168},
	"sourceSize": {"w":184,"h":168}
},
"chest_029":
{
	"frame": {"x":1489,"y":171,"w":184,"h":168},
	"rotated": false,
	"trimmed": false,
	"spriteSourceSize": {"x":0,"y":0,"w":184,"h":168},
	"sourceSize": {"w":184,"h":168}
},
"chest_030":
{
	"frame": {"x":1675,"y":171,"w":184,"h":168},
	"rotated": false,
	"trimmed": false,
	"spriteSourceSize": {"x":0,"y":0,"w":184,"h":168},
	"sourceSize": {"w":184,"h":168}
},
"chest_031":
{
	"frame": {"x":1861,"y":171,"w":184,"h":168},
	"rotated": false,
	"trimmed": false,
	"spriteSourceSize": {"x":0,"y":0,"w":184,"h":168},
	"sourceSize": {"w":184,"h":168}
},
"chest_032":
{
	"frame": {"x":187,"y":341,"w":184,"h":168},
	"rotated": false,
	"trimmed": false,
	"spriteSourceSize": {"x":0,"y":0,"w":184,"h":168},
	"sourceSize": {"w":184,"h":168}
},
"chest_033":
{
	"frame": {"x":187,"y":511,"w":184,"h":168},
	"rotated": false,
	"trimmed": false,
	"spriteSourceSize": {"x":0,"y":0,"w":184,"h":168},
	"sourceSize": {"w":184,"h":168}
},
"chest_034":
{
	"frame": {"x":187,"y":681,"w":184,"h":168},
	"rotated": false,
	"trimmed": false,
	"spriteSourceSize": {"x":0,"y":0,"w":184,"h":168},
	"sourceSize": {"w":184,"h":168}
},
"chest_035":
{
	"frame": {"x":187,"y":851,"w":184,"h":168},
	"rotated": false,
	"trimmed": false,
	"spriteSourceSize": {"x":0,"y":0,"w":184,"h":168},
	"sourceSize": {"w":184,"h":168}
},
"chest_036":
{
	"frame": {"x":187,"y":1021,"w":184,"h":168},
	"rotated": false,
	"trimmed": false,
	"spriteSourceSize": {"x":0,"y":0,"w":184,"h":168},
	"sourceSize": {"w":184,"h":168}
},
"chest_037":
{
	"frame": {"x":187,"y":1191,"w":184,"h":168},
	"rotated": false,
	"trimmed": false,
	"spriteSourceSize": {"x":0,"y":0,"w":184,"h":168},
	"sourceSize": {"w":184,"h":168}
},
"chest_038":
{
	"frame": {"x":187,"y":1361,"w":184,"h":168},
	"rotated": false,
	"trimmed": false,
	"spriteSourceSize": {"x":0,"y":0,"w":184,"h":168},
	"sourceSize": {"w":184,"h":168}
},
"chest_039":
{
	"frame": {"x":187,"y":1531,"w":184,"h":168},
	"rotated": false,
	"trimmed": false,
	"spriteSourceSize": {"x":0,"y":0,"w":184,"h":168},
	"sourceSize": {"w":184,"h":168}
},
"chest_040":
{
	"frame": {"x":187,"y":1701,"w":184,"h":168},
	"rotated": false,
	"trimmed": false,
	"spriteSourceSize": {"x":0,"y":0,"w":184,"h":168},
	"sourceSize": {"w":184,"h":168}
},
"chest_041":
{
	"frame": {"x":187,"y":1871,"w":184,"h":168},
	"rotated": false,
	"trimmed": false,
	"spriteSourceSize": {"x":0,"y":0,"w":184,"h":168},
	"sourceSize": {"w":184,"h":168}
},
"chest_042":
{
	"frame": {"x":373,"y":341,"w":184,"h":168},
	"rotated": false,
	"trimmed": false,
	"spriteSourceSize": {"x":0,"y":0,"w":184,"h":168},
	"sourceSize": {"w":184,"h":168}
},
"chest_043":
{
	"frame": {"x":559,"y":341,"w":184,"h":168},
	"rotated": false,
	"trimmed": false,
	"spriteSourceSize": {"x":0,"y":0,"w":184,"h":168},
	"sourceSize": {"w":184,"h":168}
},
"chest_044":
{
	"frame": {"x":745,"y":341,"w":184,"h":168},
	"rotated": false,
	"trimmed": false,
	"spriteSourceSize": {"x":0,"y":0,"w":184,"h":168},
	"sourceSize": {"w":184,"h":168}
},
"chest_045":
{
	"frame": {"x":931,"y":341,"w":184,"h":168},
	"rotated": false,
	"trimmed": false,
	"spriteSourceSize": {"x":0,"y":0,"w":184,"h":168},
	"sourceSize": {"w":184,"h":168}
},
"chest_046":
{
	"frame": {"x":1117,"y":341,"w":184,"h":168},
	"rotated": false,
	"trimmed": false,
	"spriteSourceSize": {"x":0,"y":0,"w":184,"h":168},
	"sourceSize": {"w":184,"h":168}
},
"chest_047":
{
	"frame": {"x":1303,"y":341,"w":184,"h":168},
	"rotated": false,
	"trimmed": false,
	"spriteSourceSize": {"x":0,"y":0,"w":184,"h":168},
	"sourceSize": {"w":184,"h":168}
},
"chest_048":
{
	"frame": {"x":1489,"y":341,"w":184,"h":168},
	"rotated": false,
	"trimmed": false,
	"spriteSourceSize": {"x":0,"y":0,"w":184,"h":168},
	"sourceSize": {"w":184,"h":168}
},
"chest_049":
{
	"frame": {"x":1675,"y":341,"w":184,"h":168},
	"rotated": false,
	"trimmed": false,
	"spriteSourceSize": {"x":0,"y":0,"w":184,"h":168},
	"sourceSize": {"w":184,"h":168}
},
"chest_050":
{
	"frame": {"x":1861,"y":341,"w":184,"h":168},
	"rotated": false,
	"trimmed": false,
	"spriteSourceSize": {"x":0,"y":0,"w":184,"h":168},
	"sourceSize": {"w":184,"h":168}
},
"chest_051":
{
	"frame": {"x":373,"y":511,"w":184,"h":168},
	"rotated": false,
	"trimmed": false,
	"spriteSourceSize": {"x":0,"y":0,"w":184,"h":168},
	"sourceSize": {"w":184,"h":168}
},
"chest_052":
{
	"frame": {"x":373,"y":681,"w":184,"h":168},
	"rotated": false,
	"trimmed": false,
	"spriteSourceSize": {"x":0,"y":0,"w":184,"h":168},
	"sourceSize": {"w":184,"h":168}
},
"chest_053":
{
	"frame": {"x":373,"y":851,"w":184,"h":168},
	"rotated": false,
	"trimmed": false,
	"spriteSourceSize": {"x":0,"y":0,"w":184,"h":168},
	"sourceSize": {"w":184,"h":168}
},
"chest_054":
{
	"frame": {"x":373,"y":1021,"w":184,"h":168},
	"rotated": false,
	"trimmed": false,
	"spriteSourceSize": {"x":0,"y":0,"w":184,"h":168},
	"sourceSize": {"w":184,"h":168}
},
"chest_055":
{
	"frame": {"x":373,"y":1191,"w":184,"h":168},
	"rotated": false,
	"trimmed": false,
	"spriteSourceSize": {"x":0,"y":0,"w":184,"h":168},
	"sourceSize": {"w":184,"h":168}
},
"chest_056":
{
	"frame": {"x":373,"y":1361,"w":184,"h":168},
	"rotated": false,
	"trimmed": false,
	"spriteSourceSize": {"x":0,"y":0,"w":184,"h":168},
	"sourceSize": {"w":184,"h":168}
},
"chest_057":
{
	"frame": {"x":373,"y":1531,"w":184,"h":168},
	"rotated": false,
	"trimmed": false,
	"spriteSourceSize": {"x":0,"y":0,"w":184,"h":168},
	"sourceSize": {"w":184,"h":168}
},
"chest_058":
{
	"frame": {"x":373,"y":1701,"w":184,"h":168},
	"rotated": false,
	"trimmed": false,
	"spriteSourceSize": {"x":0,"y":0,"w":184,"h":168},
	"sourceSize": {"w":184,"h":168}
},
"chest_059":
{
	"frame": {"x":373,"y":1871,"w":184,"h":168},
	"rotated": false,
	"trimmed": false,
	"spriteSourceSize": {"x":0,"y":0,"w":184,"h":168},
	"sourceSize": {"w":184,"h":168}
},
"chest_060":
{
	"frame": {"x":559,"y":511,"w":184,"h":168},
	"rotated": false,
	"trimmed": false,
	"spriteSourceSize": {"x":0,"y":0,"w":184,"h":168},
	"sourceSize": {"w":184,"h":168}
},
"chest_061":
{
	"frame": {"x":745,"y":511,"w":184,"h":168},
	"rotated": false,
	"trimmed": false,
	"spriteSourceSize": {"x":0,"y":0,"w":184,"h":168},
	"sourceSize": {"w":184,"h":168}
},
"chest_062":
{
	"frame": {"x":931,"y":511,"w":184,"h":168},
	"rotated": false,
	"trimmed": false,
	"spriteSourceSize": {"x":0,"y":0,"w":184,"h":168},
	"sourceSize": {"w":184,"h":168}
},
"chest_063":
{
	"frame": {"x":1117,"y":511,"w":184,"h":168},
	"rotated": false,
	"trimmed": false,
	"spriteSourceSize": {"x":0,"y":0,"w":184,"h":168},
	"sourceSize": {"w":184,"h":168}
},
"chest_064":
{
	"frame": {"x":1303,"y":511,"w":184,"h":168},
	"rotated": false,
	"trimmed": false,
	"spriteSourceSize": {"x":0,"y":0,"w":184,"h":168},
	"sourceSize": {"w":184,"h":168}
},
"chest_065":
{
	"frame": {"x":1489,"y":511,"w":184,"h":168},
	"rotated": false,
	"trimmed": false,
	"spriteSourceSize": {"x":0,"y":0,"w":184,"h":168},
	"sourceSize": {"w":184,"h":168}
},
"chest_066":
{
	"frame": {"x":1675,"y":511,"w":184,"h":168},
	"rotated": false,
	"trimmed": false,
	"spriteSourceSize": {"x":0,"y":0,"w":184,"h":168},
	"sourceSize": {"w":184,"h":168}
},
"chest_067":
{
	"frame": {"x":1861,"y":511,"w":184,"h":168},
	"rotated": false,
	"trimmed": false,
	"spriteSourceSize": {"x":0,"y":0,"w":184,"h":168},
	"sourceSize": {"w":184,"h":168}
},
"chest_068":
{
	"frame": {"x":559,"y":681,"w":184,"h":168},
	"rotated": false,
	"trimmed": false,
	"spriteSourceSize": {"x":0,"y":0,"w":184,"h":168},
	"sourceSize": {"w":184,"h":168}
},
"chest_069":
{
	"frame": {"x":559,"y":851,"w":184,"h":168},
	"rotated": false,
	"trimmed": false,
	"spriteSourceSize": {"x":0,"y":0,"w":184,"h":168},
	"sourceSize": {"w":184,"h":168}
},
"chest_070":
{
	"frame": {"x":559,"y":1021,"w":184,"h":168},
	"rotated": false,
	"trimmed": false,
	"spriteSourceSize": {"x":0,"y":0,"w":184,"h":168},
	"sourceSize": {"w":184,"h":168}
},
"chest_071":
{
	"frame": {"x":559,"y":1191,"w":184,"h":168},
	"rotated": false,
	"trimmed": false,
	"spriteSourceSize": {"x":0,"y":0,"w":184,"h":168},
	"sourceSize": {"w":184,"h":168}
},
"chest_072":
{
	"frame": {"x":559,"y":1361,"w":184,"h":168},
	"rotated": false,
	"trimmed": false,
	"spriteSourceSize": {"x":0,"y":0,"w":184,"h":168},
	"sourceSize": {"w":184,"h":168}
},
"chest_073":
{
	"frame": {"x":559,"y":1531,"w":184,"h":168},
	"rotated": false,
	"trimmed": false,
	"spriteSourceSize": {"x":0,"y":0,"w":184,"h":168},
	"sourceSize": {"w":184,"h":168}
},
"chest_074":
{
	"frame": {"x":559,"y":1701,"w":184,"h":168},
	"rotated": false,
	"trimmed": false,
	"spriteSourceSize": {"x":0,"y":0,"w":184,"h":168},
	"sourceSize": {"w":184,"h":168}
},
"chest_075":
{
	"frame": {"x":559,"y":1871,"w":184,"h":168},
	"rotated": false,
	"trimmed": false,
	"spriteSourceSize": {"x":0,"y":0,"w":184,"h":168},
	"sourceSize": {"w":184,"h":168}
},
"chest_076":
{
	"frame": {"x":745,"y":681,"w":184,"h":168},
	"rotated": false,
	"trimmed": false,
	"spriteSourceSize": {"x":0,"y":0,"w":184,"h":168},
	"sourceSize": {"w":184,"h":168}
},
"chest_077":
{
	"frame": {"x":931,"y":681,"w":184,"h":168},
	"rotated": false,
	"trimmed": false,
	"spriteSourceSize": {"x":0,"y":0,"w":184,"h":168},
	"sourceSize": {"w":184,"h":168}
},
"chest_078":
{
	"frame": {"x":1117,"y":681,"w":184,"h":168},
	"rotated": false,
	"trimmed": false,
	"spriteSourceSize": {"x":0,"y":0,"w":184,"h":168},
	"sourceSize": {"w":184,"h":168}
},
"chest_079":
{
	"frame": {"x":1303,"y":681,"w":184,"h":168},
	"rotated": false,
	"trimmed": false,
	"spriteSourceSize": {"x":0,"y":0,"w":184,"h":168},
	"sourceSize": {"w":184,"h":168}
},
"chest_bl":
{
	"frame": {"x":1489,"y":681,"w":184,"h":168},
	"rotated": false,
	"trimmed": false,
	"spriteSourceSize": {"x":0,"y":0,"w":184,"h":168},
	"sourceSize": {"w":184,"h":168}
},
"clam_000":
{
	"frame": {"x":1675,"y":681,"w":184,"h":168},
	"rotated": false,
	"trimmed": false,
	"spriteSourceSize": {"x":0,"y":0,"w":184,"h":168},
	"sourceSize": {"w":184,"h":168}
},
"clam_001":
{
	"frame": {"x":1861,"y":681,"w":184,"h":168},
	"rotated": false,
	"trimmed": false,
	"spriteSourceSize": {"x":0,"y":0,"w":184,"h":168},
	"sourceSize": {"w":184,"h":168}
},
"clam_002":
{
	"frame": {"x":745,"y":851,"w":184,"h":168},
	"rotated": false,
	"trimmed": false,
	"spriteSourceSize": {"x":0,"y":0,"w":184,"h":168},
	"sourceSize": {"w":184,"h":168}
},
"clam_003":
{
	"frame": {"x":745,"y":1021,"w":184,"h":168},
	"rotated": false,
	"trimmed": false,
	"spriteSourceSize": {"x":0,"y":0,"w":184,"h":168},
	"sourceSize": {"w":184,"h":168}
},
"clam_004":
{
	"frame": {"x":745,"y":1191,"w":184,"h":168},
	"rotated": false,
	"trimmed": false,
	"spriteSourceSize": {"x":0,"y":0,"w":184,"h":168},
	"sourceSize": {"w":184,"h":168}
},
"clam_005":
{
	"frame": {"x":745,"y":1361,"w":184,"h":168},
	"rotated": false,
	"trimmed": false,
	"spriteSourceSize": {"x":0,"y":0,"w":184,"h":168},
	"sourceSize": {"w":184,"h":168}
},
"clam_006":
{
	"frame": {"x":745,"y":1531,"w":184,"h":168},
	"rotated": false,
	"trimmed": false,
	"spriteSourceSize": {"x":0,"y":0,"w":184,"h":168},
	"sourceSize": {"w":184,"h":168}
},
"clam_007":
{
	"frame": {"x":745,"y":1701,"w":184,"h":168},
	"rotated": false,
	"trimmed": false,
	"spriteSourceSize": {"x":0,"y":0,"w":184,"h":168},
	"sourceSize": {"w":184,"h":168}
},
"clam_008":
{
	"frame": {"x":745,"y":1871,"w":184,"h":168},
	"rotated": false,
	"trimmed": false,
	"spriteSourceSize": {"x":0,"y":0,"w":184,"h":168},
	"sourceSize": {"w":184,"h":168}
},
"clam_009":
{
	"frame": {"x":931,"y":851,"w":184,"h":168},
	"rotated": false,
	"trimmed": false,
	"spriteSourceSize": {"x":0,"y":0,"w":184,"h":168},
	"sourceSize": {"w":184,"h":168}
},
"clam_010":
{
	"frame": {"x":1117,"y":851,"w":184,"h":168},
	"rotated": false,
	"trimmed": false,
	"spriteSourceSize": {"x":0,"y":0,"w":184,"h":168},
	"sourceSize": {"w":184,"h":168}
},
"clam_011":
{
	"frame": {"x":1303,"y":851,"w":184,"h":168},
	"rotated": false,
	"trimmed": false,
	"spriteSourceSize": {"x":0,"y":0,"w":184,"h":168},
	"sourceSize": {"w":184,"h":168}
},
"clam_012":
{
	"frame": {"x":1489,"y":851,"w":184,"h":168},
	"rotated": false,
	"trimmed": false,
	"spriteSourceSize": {"x":0,"y":0,"w":184,"h":168},
	"sourceSize": {"w":184,"h":168}
},
"clam_013":
{
	"frame": {"x":1675,"y":851,"w":184,"h":168},
	"rotated": false,
	"trimmed": false,
	"spriteSourceSize": {"x":0,"y":0,"w":184,"h":168},
	"sourceSize": {"w":184,"h":168}
},
"clam_014":
{
	"frame": {"x":1861,"y":851,"w":184,"h":168},
	"rotated": false,
	"trimmed": false,
	"spriteSourceSize": {"x":0,"y":0,"w":184,"h":168},
	"sourceSize": {"w":184,"h":168}
},
"clam_015":
{
	"frame": {"x":931,"y":1021,"w":184,"h":168},
	"rotated": false,
	"trimmed": false,
	"spriteSourceSize": {"x":0,"y":0,"w":184,"h":168},
	"sourceSize": {"w":184,"h":168}
},
"clam_016":
{
	"frame": {"x":931,"y":1191,"w":184,"h":168},
	"rotated": false,
	"trimmed": false,
	"spriteSourceSize": {"x":0,"y":0,"w":184,"h":168},
	"sourceSize": {"w":184,"h":168}
},
"clam_017":
{
	"frame": {"x":931,"y":1361,"w":184,"h":168},
	"rotated": false,
	"trimmed": false,
	"spriteSourceSize": {"x":0,"y":0,"w":184,"h":168},
	"sourceSize": {"w":184,"h":168}
},
"clam_018":
{
	"frame": {"x":931,"y":1531,"w":184,"h":168},
	"rotated": false,
	"trimmed": false,
	"spriteSourceSize": {"x":0,"y":0,"w":184,"h":168},
	"sourceSize": {"w":184,"h":168}
},
"clam_019":
{
	"frame": {"x":931,"y":1701,"w":184,"h":168},
	"rotated": false,
	"trimmed": false,
	"spriteSourceSize": {"x":0,"y":0,"w":184,"h":168},
	"sourceSize": {"w":184,"h":168}
},
"clam_020":
{
	"frame": {"x":931,"y":1871,"w":184,"h":168},
	"rotated": false,
	"trimmed": false,
	"spriteSourceSize": {"x":0,"y":0,"w":184,"h":168},
	"sourceSize": {"w":184,"h":168}
},
"clam_021":
{
	"frame": {"x":1117,"y":1021,"w":184,"h":168},
	"rotated": false,
	"trimmed": false,
	"spriteSourceSize": {"x":0,"y":0,"w":184,"h":168},
	"sourceSize": {"w":184,"h":168}
},
"clam_022":
{
	"frame": {"x":1303,"y":1021,"w":184,"h":168},
	"rotated": false,
	"trimmed": false,
	"spriteSourceSize": {"x":0,"y":0,"w":184,"h":168},
	"sourceSize": {"w":184,"h":168}
},
"clam_023":
{
	"frame": {"x":1489,"y":1021,"w":184,"h":168},
	"rotated": false,
	"trimmed": false,
	"spriteSourceSize": {"x":0,"y":0,"w":184,"h":168},
	"sourceSize": {"w":184,"h":168}
},
"clam_024":
{
	"frame": {"x":1675,"y":1021,"w":184,"h":168},
	"rotated": false,
	"trimmed": false,
	"spriteSourceSize": {"x":0,"y":0,"w":184,"h":168},
	"sourceSize": {"w":184,"h":168}
},
"clam_025":
{
	"frame": {"x":1861,"y":1021,"w":184,"h":168},
	"rotated": false,
	"trimmed": false,
	"spriteSourceSize": {"x":0,"y":0,"w":184,"h":168},
	"sourceSize": {"w":184,"h":168}
},
"clam_026":
{
	"frame": {"x":1117,"y":1191,"w":184,"h":168},
	"rotated": false,
	"trimmed": false,
	"spriteSourceSize": {"x":0,"y":0,"w":184,"h":168},
	"sourceSize": {"w":184,"h":168}
},
"clam_027":
{
	"frame": {"x":1117,"y":1361,"w":184,"h":168},
	"rotated": false,
	"trimmed": false,
	"spriteSourceSize": {"x":0,"y":0,"w":184,"h":168},
	"sourceSize": {"w":184,"h":168}
},
"clam_028":
{
	"frame": {"x":1117,"y":1531,"w":184,"h":168},
	"rotated": false,
	"trimmed": false,
	"spriteSourceSize": {"x":0,"y":0,"w":184,"h":168},
	"sourceSize": {"w":184,"h":168}
},
"clam_029":
{
	"frame": {"x":1117,"y":1701,"w":184,"h":168},
	"rotated": false,
	"trimmed": false,
	"spriteSourceSize": {"x":0,"y":0,"w":184,"h":168},
	"sourceSize": {"w":184,"h":168}
},
"clam_030":
{
	"frame": {"x":1117,"y":1871,"w":184,"h":168},
	"rotated": false,
	"trimmed": false,
	"spriteSourceSize": {"x":0,"y":0,"w":184,"h":168},
	"sourceSize": {"w":184,"h":168}
},
"clam_031":
{
	"frame": {"x":1303,"y":1191,"w":184,"h":168},
	"rotated": false,
	"trimmed": false,
	"spriteSourceSize": {"x":0,"y":0,"w":184,"h":168},
	"sourceSize": {"w":184,"h":168}
},
"clam_032":
{
	"frame": {"x":1489,"y":1191,"w":184,"h":168},
	"rotated": false,
	"trimmed": false,
	"spriteSourceSize": {"x":0,"y":0,"w":184,"h":168},
	"sourceSize": {"w":184,"h":168}
},
"clam_033":
{
	"frame": {"x":1675,"y":1191,"w":184,"h":168},
	"rotated": false,
	"trimmed": false,
	"spriteSourceSize": {"x":0,"y":0,"w":184,"h":168},
	"sourceSize": {"w":184,"h":168}
},
"clam_034":
{
	"frame": {"x":1861,"y":1191,"w":184,"h":168},
	"rotated": false,
	"trimmed": false,
	"spriteSourceSize": {"x":0,"y":0,"w":184,"h":168},
	"sourceSize": {"w":184,"h":168}
},
"clam_035":
{
	"frame": {"x":1303,"y":1361,"w":184,"h":168},
	"rotated": false,
	"trimmed": false,
	"spriteSourceSize": {"x":0,"y":0,"w":184,"h":168},
	"sourceSize": {"w":184,"h":168}
},
"clam_036":
{
	"frame": {"x":1303,"y":1531,"w":184,"h":168},
	"rotated": false,
	"trimmed": false,
	"spriteSourceSize": {"x":0,"y":0,"w":184,"h":168},
	"sourceSize": {"w":184,"h":168}
},
"clam_037":
{
	"frame": {"x":1303,"y":1701,"w":184,"h":168},
	"rotated": false,
	"trimmed": false,
	"spriteSourceSize": {"x":0,"y":0,"w":184,"h":168},
	"sourceSize": {"w":184,"h":168}
},
"clam_038":
{
	"frame": {"x":1303,"y":1871,"w":184,"h":168},
	"rotated": false,
	"trimmed": false,
	"spriteSourceSize": {"x":0,"y":0,"w":184,"h":168},
	"sourceSize": {"w":184,"h":168}
},
"clam_039":
{
	"frame": {"x":1489,"y":1361,"w":184,"h":168},
	"rotated": false,
	"trimmed": false,
	"spriteSourceSize": {"x":0,"y":0,"w":184,"h":168},
	"sourceSize": {"w":184,"h":168}
},
"clam_040":
{
	"frame": {"x":1675,"y":1361,"w":184,"h":168},
	"rotated": false,
	"trimmed": false,
	"spriteSourceSize": {"x":0,"y":0,"w":184,"h":168},
	"sourceSize": {"w":184,"h":168}
},
"clam_041":
{
	"frame": {"x":1861,"y":1361,"w":184,"h":168},
	"rotated": false,
	"trimmed": false,
	"spriteSourceSize": {"x":0,"y":0,"w":184,"h":168},
	"sourceSize": {"w":184,"h":168}
},
"clam_042":
{
	"frame": {"x":1489,"y":1531,"w":184,"h":168},
	"rotated": false,
	"trimmed": false,
	"spriteSourceSize": {"x":0,"y":0,"w":184,"h":168},
	"sourceSize": {"w":184,"h":168}
},
"clam_043":
{
	"frame": {"x":1489,"y":1701,"w":184,"h":168},
	"rotated": false,
	"trimmed": false,
	"spriteSourceSize": {"x":0,"y":0,"w":184,"h":168},
	"sourceSize": {"w":184,"h":168}
},
"clam_044":
{
	"frame": {"x":1489,"y":1871,"w":184,"h":168},
	"rotated": false,
	"trimmed": false,
	"spriteSourceSize": {"x":0,"y":0,"w":184,"h":168},
	"sourceSize": {"w":184,"h":168}
},
"clam_045":
{
	"frame": {"x":1675,"y":1531,"w":184,"h":168},
	"rotated": false,
	"trimmed": false,
	"spriteSourceSize": {"x":0,"y":0,"w":184,"h":168},
	"sourceSize": {"w":184,"h":168}
},
"clam_046":
{
	"frame": {"x":1861,"y":1531,"w":184,"h":168},
	"rotated": false,
	"trimmed": false,
	"spriteSourceSize": {"x":0,"y":0,"w":184,"h":168},
	"sourceSize": {"w":184,"h":168}
},
"clam_047":
{
	"frame": {"x":1675,"y":1701,"w":184,"h":168},
	"rotated": false,
	"trimmed": false,
	"spriteSourceSize": {"x":0,"y":0,"w":184,"h":168},
	"sourceSize": {"w":184,"h":168}
},
"clam_048":
{
	"frame": {"x":1861,"y":1701,"w":184,"h":168},
	"rotated": false,
	"trimmed": false,
	"spriteSourceSize": {"x":0,"y":0,"w":184,"h":168},
	"sourceSize": {"w":184,"h":168}
},
"clam_049":
{
	"frame": {"x":1675,"y":1871,"w":184,"h":168},
	"rotated": false,
	"trimmed": false,
	"spriteSourceSize": {"x":0,"y":0,"w":184,"h":168},
	"sourceSize": {"w":184,"h":168}
},
"clam_bl":
{
	"frame": {"x":1861,"y":1871,"w":184,"h":168},
	"rotated": false,
	"trimmed": false,
	"spriteSourceSize": {"x":0,"y":0,"w":184,"h":168},
	"sourceSize": {"w":184,"h":168}
}},
"meta": {
	"app": "https://www.codeandweb.com/texturepacker",
	"version": "1.0",
	"image": "symbols2.png",
	"format": "RGBA8888",
	"size": {"w":2046,"h":2040},
	"scale": "1",
	"smartupdate": "$TexturePacker:SmartUpdate:d9705625c9019194bb75407313ddad77:d02b40bdd79cb7b963a32ef45fdc219d:b46966b53c883816075f4108c8a085eb$"
}
}
